sim/SDDU.vcd
$date
	Wed Jul 15 13:38:27 2026
$end
$version
	Icarus Verilog
$end
$timescale
	1ps
$end
$scope module tb_SDDU $end
$var wire 1 ! out_valid $end
$var wire 256 " out_psum_bus [255:0] $end
$var wire 1 # out_k_tile_last $end
$var wire 1 $ out_k_tile_first $end
$var reg 1 % clk $end
$var reg 1 & enable $end
$var reg 1 ' in_k_tile_first $end
$var reg 1 ( in_k_tile_last $end
$var reg 256 ) in_psum_bus [255:0] $end
$var reg 1 * in_valid $end
$var reg 1 + rst_n $end
$var integer 32 , errors [31:0] $end
$scope module dut $end
$var wire 1 % clk $end
$var wire 1 & enable $end
$var wire 1 ' in_k_tile_first $end
$var wire 1 ( in_k_tile_last $end
$var wire 256 - in_psum_bus [255:0] $end
$var wire 1 * in_valid $end
$var wire 1 $ out_k_tile_first $end
$var wire 1 # out_k_tile_last $end
$var wire 1 ! out_valid $end
$var wire 1 + rst_n $end
$var wire 256 . out_psum_bus [255:0] $end
$var parameter 32 / MAX_DELAY $end
$scope begin genblk1[0] $end
$var parameter 32 0 DELAY $end
$var parameter 2 1 c $end
$scope begin genblk1 $end
$upscope $end
$upscope $end
$scope begin genblk1[1] $end
$var parameter 32 2 DELAY $end
$var parameter 2 3 c $end
$scope begin genblk1 $end
$upscope $end
$upscope $end
$scope begin genblk1[2] $end
$var parameter 32 4 DELAY $end
$var parameter 3 5 c $end
$scope begin genblk1 $end
$upscope $end
$upscope $end
$scope begin genblk1[3] $end
$var parameter 32 6 DELAY $end
$var parameter 3 7 c $end
$scope begin genblk1 $end
$upscope $end
$upscope $end
$scope begin genblk1[4] $end
$var parameter 32 8 DELAY $end
$var parameter 4 9 c $end
$scope begin genblk1 $end
$upscope $end
$upscope $end
$scope begin genblk1[5] $end
$var parameter 32 : DELAY $end
$var parameter 4 ; c $end
$scope begin genblk1 $end
$upscope $end
$upscope $end
$scope begin genblk1[6] $end
$var parameter 32 < DELAY $end
$var parameter 4 = c $end
$scope begin genblk1 $end
$upscope $end
$upscope $end
$scope begin genblk1[7] $end
$var parameter 32 > DELAY $end
$var parameter 4 ? c $end
$scope begin genblk1 $end
$upscope $end
$upscope $end
$scope begin $ivl_for_loop0 $end
$var integer 32 @ i [31:0] $end
$scope begin $ivl_for_loop1 $end
$var integer 32 A j [31:0] $end
$upscope $end
$upscope $end
$scope begin $ivl_for_loop2 $end
$var integer 32 B j [31:0] $end
$upscope $end
$scope begin $ivl_for_loop3 $end
$var integer 32 C i [31:0] $end
$upscope $end
$scope begin $ivl_for_loop4 $end
$var integer 32 D i [31:0] $end
$scope begin $ivl_for_loop5 $end
$var integer 32 E j [31:0] $end
$upscope $end
$upscope $end
$scope begin $ivl_for_loop6 $end
$var integer 32 F j [31:0] $end
$upscope $end
$scope begin $ivl_for_loop7 $end
$var integer 32 G k [31:0] $end
$upscope $end
$upscope $end
$scope begin $ivl_for_loop8 $end
$var integer 32 H t [31:0] $end
$scope begin $ivl_for_loop9 $end
$var integer 32 I c [31:0] $end
$scope begin $unm_blk_19 $end
$var integer 32 J r [31:0] $end
$upscope $end
$upscope $end
$scope begin $unm_blk_22 $end
$var integer 32 K out_t [31:0] $end
$scope begin $ivl_for_loop10 $end
$var integer 32 L c [31:0] $end
$scope begin $unm_blk_27 $end
$var reg 32 M expected_val [31:0] $end
$var reg 32 N got_val [31:0] $end
$upscope $end
$upscope $end
$upscope $end
$upscope $end
$scope begin $unm_blk_31 $end
$var integer 32 O enabled_cycles [31:0] $end
$scope begin $ivl_for_loop11 $end
$var integer 32 P t [31:0] $end
$scope begin $ivl_for_loop12 $end
$var integer 32 Q c [31:0] $end
$scope begin $unm_blk_34 $end
$var integer 32 R r [31:0] $end
$upscope $end
$upscope $end
$scope begin $ivl_for_loop13 $end
$var integer 32 S c [31:0] $end
$scope begin $unm_blk_38 $end
$var integer 32 T r [31:0] $end
$upscope $end
$upscope $end
$scope begin $unm_blk_41 $end
$var integer 32 U out_t [31:0] $end
$scope begin $ivl_for_loop14 $end
$var integer 32 V c [31:0] $end
$scope begin $unm_blk_46 $end
$var reg 32 W expected_val [31:0] $end
$var reg 32 X got_val [31:0] $end
$upscope $end
$upscope $end
$upscope $end
$upscope $end
$upscope $end
$scope task reset_dut $end
$upscope $end
$upscope $end
$enddefinitions $end
$comment Show the parameter values. $end
$dumpall
b111 ?
b0 >
b110 =
b1 <
b101 ;
b10 :
b100 9
b11 8
b11 7
b100 6
b10 5
b101 4
b1 3
b110 2
b0 1
b111 0
b111 /
$end
#0
$dumpvars
bx X
bx W
b0 V
b0 U
b0 T
b0 S
b0 R
b0 Q
b0 P
b0 O
bx N
bx M
b0 L
b0 K
b0 J
b0 I
b0 H
b0 G
b0 F
b0 E
b0 D
b111 C
b111 B
b111 A
b1000 @
b0 .
b0 -
b0 ,
0+
0*
b0 )
0(
0'
0&
0%
0$
0#
b0 "
0!
$end
#5000
b111 C
b111 B
b111 A
b1000 @
1%
#10000
0%
1+
#15000
1%
#20000
b111 C
b111 B
b111 A
b1000 @
0+
0%
#25000
b111 C
b111 B
b111 A
b1000 @
1%
#30000
0%
#35000
b111 C
b111 B
b111 A
b1000 @
1%
#40000
1+
0%
#45000
1%
#50000
1(
1'
b1 )
b1 -
1&
1*
0%
#55000
b111 G
b111 F
b1000 D
b111 E
1%
#60000
b111 C
b111 B
b111 A
b1000 @
0(
0'
b0 )
b0 -
0*
0&
0+
0%
#65000
b111 C
b111 B
b111 A
b1000 @
1%
#70000
0%
#75000
b111 C
b111 B
b111 A
b1000 @
1%
#80000
1+
0%
#85000
1%
#90000
0%
#95000
1%
#100000
b111 C
b111 B
b111 A
b1000 @
0+
0%
#105000
b111 C
b111 B
b111 A
b1000 @
1%
#110000
0%
#115000
b111 C
b111 B
b111 A
b1000 @
1%
#120000
1+
0%
#125000
1%
#130000
b11111111111111111111111111111001 J
b1000 I
b1100101 )
b1100101 -
1'
1*
1&
0%
#131000
b11111111111111111111111111111001 K
#135000
b111 G
b111 F
b111 E
b1000 D
b1 H
1%
#140000
b110011000000000000000000000000011001001 )
b110011000000000000000000000000011001001 -
b11111111111111111111111111111010 J
b1000 I
0'
0%
#141000
b11111111111111111111111111111010 K
#145000
b111 G
b111 F
b111 E
b1000 D
b10 H
1%
#150000
b11001110000000000000000000000001100101000000000000000000000000100101101 )
b11001110000000000000000000000001100101000000000000000000000000100101101 -
b11111111111111111111111111111011 J
b1000 I
0%
#151000
b11111111111111111111111111111011 K
#155000
b111 G
b111 F
b111 E
b1000 D
b11 H
1%
#160000
b1101000000000000000000000000000110010110000000000000000000000010010111000000000000000000000000110010001 )
b1101000000000000000000000000000110010110000000000000000000000010010111000000000000000000000000110010001 -
b11111111111111111111111111111100 J
b1000 I
0%
#161000
b11111111111111111111111111111100 K
#165000
b111 G
b111 F
b111 E
b1000 D
b100 H
1%
#170000
b110100100000000000000000000000011001100000000000000000000000001001011110000000000000000000000011001001000000000000000000000000111110101 )
b110100100000000000000000000000011001100000000000000000000000001001011110000000000000000000000011001001000000000000000000000000111110101 -
b11111111111111111111111111111101 J
b1000 I
0%
#171000
b11111111111111111111111111111101 K
#175000
b111 G
b111 F
b111 E
b1000 D
b101 H
1%
#180000
b11010100000000000000000000000001100110100000000000000000000000100110000000000000000000000000001100100110000000000000000000000011111011000000000000000000000001001011001 )
b11010100000000000000000000000001100110100000000000000000000000100110000000000000000000000000001100100110000000000000000000000011111011000000000000000000000001001011001 -
b11111111111111111111111111111110 J
b1000 I
0%
#181000
b11111111111111111111111111111110 K
#185000
b111 G
b111 F
b111 E
b1000 D
b110 H
1%
#190000
b1101011000000000000000000000000110011100000000000000000000000010011000100000000000000000000000110010100000000000000000000000001111101110000000000000000000000100101101000000000000000000000001010111101 )
b1101011000000000000000000000000110011100000000000000000000000010011000100000000000000000000000110010100000000000000000000000001111101110000000000000000000000100101101000000000000000000000001010111101 -
b11111111111111111111111111111111 J
b1000 I
0%
#191000
b11111111111111111111111111111111 K
#195000
1$
1!
b1101011000000000000000000000000011010100000000000000000000000000110100100000000000000000000000001101000000000000000000000000000011001110000000000000000000000000110011000000000000000000000000001100101 "
b1101011000000000000000000000000011010100000000000000000000000000110100100000000000000000000000001101000000000000000000000000000011001110000000000000000000000000110011000000000000000000000000001100101 .
b111 G
b111 F
b111 E
b1000 D
b111 H
1%
#200000
b110110000000000000000000000000001101011000000000000000000000000011010100000000000000000000000000110100100000000000000000000000001101000000000000000000000000000011001110000000000000000000000000110011000000000000000000000000001100101 "
b110110000000000000000000000000001101011000000000000000000000000011010100000000000000000000000000110100100000000000000000000000001101000000000000000000000000000011001110000000000000000000000000110011000000000000000000000000001100101 .
b110110000000000000000000000000011001111000000000000000000000001001100100000000000000000000000011001010100000000000000000000000111111000000000000000000000000010010110110000000000000000000000101011111000000000000000000000001100100001 )
b110110000000000000000000000000011001111000000000000000000000001001100100000000000000000000000011001010100000000000000000000000111111000000000000000000000000010010110110000000000000000000000101011111000000000000000000000001100100001 -
b0 J
b1000 I
1(
0%
#201000
b1000 L
b1101100 N
b1101100 M
b0 K
#205000
0$
b110110000000000000000000000000011001111000000000000000000000000110011100000000000000000000000001100110100000000000000000000000011001100000000000000000000000000110010110000000000000000000000001100101000000000000000000000000011001001 "
b110110000000000000000000000000011001111000000000000000000000000110011100000000000000000000000001100110100000000000000000000000011001100000000000000000000000000110010110000000000000000000000001100101000000000000000000000000011001001 .
b111 G
b111 F
b111 E
b1000 D
b1000 H
1%
#210000
b1101000000000000000000000000000011001111000000000000000000000000110011100000000000000000000000001100110100000000000000000000000011001100000000000000000000000000110010110000000000000000000000001100101000000000000000000000000011001001 "
b1101000000000000000000000000000011001111000000000000000000000000110011100000000000000000000000001100110100000000000000000000000011001100000000000000000000000000110010110000000000000000000000001100101000000000000000000000000011001001 .
b1101000000000000000000000000000100110011000000000000000000000001100101100000000000000000000000011111100100000000000000000000001001011100000000000000000000000010101111110000000000000000000000110010001000000000000000000000000000000000 )
b1101000000000000000000000000000100110011000000000000000000000001100101100000000000000000000000011111100100000000000000000000001001011100000000000000000000000010101111110000000000000000000000110010001000000000000000000000000000000000 -
b1 J
b1000 I
0(
0*
0%
#211000
b11010000 N
b11010000 M
b1000 L
b1 K
#215000
b1101000000000000000000000000000100110011000000000000000000000001001100100000000000000000000000010011000100000000000000000000000100110000000000000000000000000001001011110000000000000000000000010010111000000000000000000000000100101101 "
b1101000000000000000000000000000100110011000000000000000000000001001100100000000000000000000000010011000100000000000000000000000100110000000000000000000000000001001011110000000000000000000000010010111000000000000000000000000100101101 .
b111 G
b111 F
b111 E
b1000 D
b1001 H
1%
#220000
b10011010000000000000000000000000100110011000000000000000000000001001100100000000000000000000000010011000100000000000000000000000100110000000000000000000000000001001011110000000000000000000000010010111000000000000000000000000100101101 "
b10011010000000000000000000000000100110011000000000000000000000001001100100000000000000000000000010011000100000000000000000000000100110000000000000000000000000001001011110000000000000000000000010010111000000000000000000000000100101101 .
b10011010000000000000000000000000110010111000000000000000000000001111110100000000000000000000000100101110100000000000000000000001011000000000000000000000000000011001000110000000000000000000000000000000000000000000000000000000000000000 )
b10011010000000000000000000000000110010111000000000000000000000001111110100000000000000000000000100101110100000000000000000000001011000000000000000000000000000011001000110000000000000000000000000000000000000000000000000000000000000000 -
b10 J
b1000 I
0%
#221000
b100110100 N
b100110100 M
b1000 L
b10 K
#225000
b10011010000000000000000000000000110010111000000000000000000000001100101100000000000000000000000011001010100000000000000000000000110010100000000000000000000000001100100110000000000000000000000011001001000000000000000000000000110010001 "
b10011010000000000000000000000000110010111000000000000000000000001100101100000000000000000000000011001010100000000000000000000000110010100000000000000000000000001100100110000000000000000000000011001001000000000000000000000000110010001 .
b111 G
b111 F
b111 E
b1000 D
b1010 H
1%
#230000
b11001100000000000000000000000000110010111000000000000000000000001100101100000000000000000000000011001010100000000000000000000000110010100000000000000000000000001100100110000000000000000000000011001001000000000000000000000000110010001 "
b11001100000000000000000000000000110010111000000000000000000000001100101100000000000000000000000011001010100000000000000000000000110010100000000000000000000000001100100110000000000000000000000011001001000000000000000000000000110010001 .
b11001100000000000000000000000000111111011000000000000000000000010010111100000000000000000000000101100000100000000000000000000001100100100000000000000000000000000000000000000000000000000000000000000000000000000000000000000000000000000 )
b11001100000000000000000000000000111111011000000000000000000000010010111100000000000000000000000101100000100000000000000000000001100100100000000000000000000000000000000000000000000000000000000000000000000000000000000000000000000000000 -
b11 J
b1000 I
0%
#231000
b110011000 N
b110011000 M
b1000 L
b11 K
#235000
b11001100000000000000000000000000111111011000000000000000000000001111110100000000000000000000000011111100100000000000000000000000111111000000000000000000000000001111101110000000000000000000000011111011000000000000000000000000111110101 "
b11001100000000000000000000000000111111011000000000000000000000001111110100000000000000000000000011111100100000000000000000000000111111000000000000000000000000001111101110000000000000000000000011111011000000000000000000000000111110101 .
b111 G
b111 F
b111 E
b1000 D
b1011 H
1%
#240000
b11111110000000000000000000000000111111011000000000000000000000001111110100000000000000000000000011111100100000000000000000000000111111000000000000000000000000001111101110000000000000000000000011111011000000000000000000000000111110101 "
b11111110000000000000000000000000111111011000000000000000000000001111110100000000000000000000000011111100100000000000000000000000111111000000000000000000000000001111101110000000000000000000000011111011000000000000000000000000111110101 .
b11111110000000000000000000000001001011111000000000000000000000010110000100000000000000000000000110010010100000000000000000000000000000000000000000000000000000000000000000000000000000000000000000000000000000000000000000000000000000000 )
b11111110000000000000000000000001001011111000000000000000000000010110000100000000000000000000000110010010100000000000000000000000000000000000000000000000000000000000000000000000000000000000000000000000000000000000000000000000000000000 -
b100 J
b1000 I
0%
#241000
b111111100 N
b111111100 M
b1000 L
b100 K
#245000
b11111110000000000000000000000001001011111000000000000000000000010010111100000000000000000000000100101110100000000000000000000001001011100000000000000000000000010010110110000000000000000000000100101101000000000000000000000001001011001 "
b11111110000000000000000000000001001011111000000000000000000000010010111100000000000000000000000100101110100000000000000000000001001011100000000000000000000000010010110110000000000000000000000100101101000000000000000000000001001011001 .
b111 G
b111 F
b111 E
b1000 D
b1100 H
1%
#250000
b100110000000000000000000000000001001011111000000000000000000000010010111100000000000000000000000100101110100000000000000000000001001011100000000000000000000000010010110110000000000000000000000100101101000000000000000000000001001011001 "
b100110000000000000000000000000001001011111000000000000000000000010010111100000000000000000000000100101110100000000000000000000001001011100000000000000000000000010010110110000000000000000000000100101101000000000000000000000001001011001 .
b100110000000000000000000000000001011000011000000000000000000000011001001100000000000000000000000000000000000000000000000000000000000000000000000000000000000000000000000000000000000000000000000000000000000000000000000000000000000000000 )
b100110000000000000000000000000001011000011000000000000000000000011001001100000000000000000000000000000000000000000000000000000000000000000000000000000000000000000000000000000000000000000000000000000000000000000000000000000000000000000 -
b101 J
b1000 I
0%
#251000
b1001100000 N
b1001100000 M
b1000 L
b101 K
#255000
b100110000000000000000000000000001011000011000000000000000000000010110000100000000000000000000000101100000100000000000000000000001011000000000000000000000000000010101111110000000000000000000000101011111000000000000000000000001010111101 "
b100110000000000000000000000000001011000011000000000000000000000010110000100000000000000000000000101100000100000000000000000000001011000000000000000000000000000010101111110000000000000000000000101011111000000000000000000000001010111101 .
b111 G
b111 F
b111 E
b1000 D
b1101 H
1%
#260000
b101100010000000000000000000000001011000011000000000000000000000010110000100000000000000000000000101100000100000000000000000000001011000000000000000000000000000010101111110000000000000000000000101011111000000000000000000000001010111101 "
b101100010000000000000000000000001011000011000000000000000000000010110000100000000000000000000000101100000100000000000000000000001011000000000000000000000000000010101111110000000000000000000000101011111000000000000000000000001010111101 .
b101100010000000000000000000000001100100111000000000000000000000000000000000000000000000000000000000000000000000000000000000000000000000000000000000000000000000000000000000000000000000000000000000000000000000000000000000000000000000000 )
b101100010000000000000000000000001100100111000000000000000000000000000000000000000000000000000000000000000000000000000000000000000000000000000000000000000000000000000000000000000000000000000000000000000000000000000000000000000000000000 -
b110 J
b1000 I
0%
#261000
b1011000100 N
b1011000100 M
b1000 L
b110 K
#265000
1#
b101100010000000000000000000000001100100111000000000000000000000011001001100000000000000000000000110010010100000000000000000000001100100100000000000000000000000011001000110000000000000000000000110010001000000000000000000000001100100001 "
b101100010000000000000000000000001100100111000000000000000000000011001001100000000000000000000000110010010100000000000000000000001100100100000000000000000000000011001000110000000000000000000000110010001000000000000000000000001100100001 .
b111 G
b111 F
b111 E
b1000 D
b1110 H
1%
#270000
b110010100000000000000000000000001100100111000000000000000000000011001001100000000000000000000000110010010100000000000000000000001100100100000000000000000000000011001000110000000000000000000000110010001000000000000000000000001100100001 "
b110010100000000000000000000000001100100111000000000000000000000011001001100000000000000000000000110010010100000000000000000000001100100100000000000000000000000011001000110000000000000000000000110010001000000000000000000000001100100001 .
b110010100000000000000000000000000000000000000000000000000000000000000000000000000000000000000000000000000000000000000000000000000000000000000000000000000000000000000000000000000000000000000000000000000000000000000000000000000000000000 )
b110010100000000000000000000000000000000000000000000000000000000000000000000000000000000000000000000000000000000000000000000000000000000000000000000000000000000000000000000000000000000000000000000000000000000000000000000000000000000000 -
b111 J
b1000 I
0%
#271000
b1100101000 N
b1100101000 M
b1000 L
b111 K
#275000
0#
0!
b110010100000000000000000000000000000000000000000000000000000000000000000000000000000000000000000000000000000000000000000000000000000000000000000000000000000000000000000000000000000000000000000000000000000000000000000000000000000000000 "
b110010100000000000000000000000000000000000000000000000000000000000000000000000000000000000000000000000000000000000000000000000000000000000000000000000000000000000000000000000000000000000000000000000000000000000000000000000000000000000 .
b111 G
b111 F
b111 E
b1000 D
b1111 H
1%
#280000
b0 "
b0 .
b0 )
b0 -
b1000 J
b1000 I
0%
#281000
b1000 K
#285000
b111 G
b111 F
b111 E
b1000 D
b10000 H
1%
#290000
b1001 J
b1000 I
0%
#291000
b1001 K
#295000
b111 G
b111 F
b111 E
b1000 D
b10001 H
1%
#300000
b1010 J
b1000 I
0%
#301000
b1010 K
#305000
b111 G
b111 F
b111 E
b1000 D
b10010 H
1%
#310000
b1011 J
b1000 I
0%
#311000
b1011 K
#315000
b111 G
b111 F
b111 E
b1000 D
b10011 H
1%
#320000
b1100 J
b1000 I
0%
#321000
b1100 K
#325000
b111 G
b111 F
b111 E
b1000 D
b10100 H
1%
#330000
b111 C
b111 B
b111 A
b1000 @
0&
0+
0%
#335000
b111 C
b111 B
b111 A
b1000 @
1%
#340000
0%
#345000
b111 C
b111 B
b111 A
b1000 @
1%
#350000
1+
0%
#355000
1%
#360000
b11111111111111111111111111111001 T
b1000 S
b1100101 )
b1100101 -
1'
1*
1&
0%
#361000
b11111111111111111111111111111001 U
#365000
b111 G
b111 F
b111 E
b1000 D
b1 P
b1 O
1%
#370000
b110011000000000000000000000000011001001 )
b110011000000000000000000000000011001001 -
b11111111111111111111111111111010 T
b1000 S
0'
0%
#371000
b11111111111111111111111111111010 U
#375000
b111 G
b111 F
b111 E
b1000 D
b10 P
b10 O
1%
#380000
b11001110000000000000000000000001100101000000000000000000000000100101101 )
b11001110000000000000000000000001100101000000000000000000000000100101101 -
b11111111111111111111111111111011 T
b1000 S
0%
#381000
b11111111111111111111111111111011 U
#385000
b111 G
b111 F
b111 E
b1000 D
b11 P
b11 O
1%
#390000
b1000 Q
b1101000000000000000000000000000110010110000000000000000000000010010111000000000000000000000000110010001 )
b1101000000000000000000000000000110010110000000000000000000000010010111000000000000000000000000110010001 -
b11111111111111111111111111111100 R
0&
0%
#395000
b100 P
1%
#400000
b11111111111111111111111111111100 R
b1000 Q
0%
#405000
b101 P
1%
#410000
b11111111111111111111111111111100 R
b1000 Q
0%
#415000
b110 P
1%
#420000
b11111111111111111111111111111100 T
b1000 S
1&
0%
#421000
b11111111111111111111111111111100 U
#425000
b111 G
b111 F
b111 E
b1000 D
b111 P
b100 O
1%
#430000
b110100100000000000000000000000011001100000000000000000000000001001011110000000000000000000000011001001000000000000000000000000111110101 )
b110100100000000000000000000000011001100000000000000000000000001001011110000000000000000000000011001001000000000000000000000000111110101 -
b11111111111111111111111111111101 T
b1000 S
0%
#431000
b11111111111111111111111111111101 U
#435000
b111 G
b111 F
b111 E
b1000 D
b1000 P
b101 O
1%
#440000
b11010100000000000000000000000001100110100000000000000000000000100110000000000000000000000000001100100110000000000000000000000011111011000000000000000000000001001011001 )
b11010100000000000000000000000001100110100000000000000000000000100110000000000000000000000000001100100110000000000000000000000011111011000000000000000000000001001011001 -
b11111111111111111111111111111110 T
b1000 S
0%
#441000
b11111111111111111111111111111110 U
#445000
b111 G
b111 F
b111 E
b1000 D
b1001 P
b110 O
1%
#450000
b1101011000000000000000000000000110011100000000000000000000000010011000100000000000000000000000110010100000000000000000000000001111101110000000000000000000000100101101000000000000000000000001010111101 )
b1101011000000000000000000000000110011100000000000000000000000010011000100000000000000000000000110010100000000000000000000000001111101110000000000000000000000100101101000000000000000000000001010111101 -
b11111111111111111111111111111111 T
b1000 S
0%
#451000
b11111111111111111111111111111111 U
#455000
1$
1!
b1101011000000000000000000000000011010100000000000000000000000000110100100000000000000000000000001101000000000000000000000000000011001110000000000000000000000000110011000000000000000000000000001100101 "
b1101011000000000000000000000000011010100000000000000000000000000110100100000000000000000000000001101000000000000000000000000000011001110000000000000000000000000110011000000000000000000000000001100101 .
b111 G
b111 F
b111 E
b1000 D
b1010 P
b111 O
1%
#460000
b110110000000000000000000000000001101011000000000000000000000000011010100000000000000000000000000110100100000000000000000000000001101000000000000000000000000000011001110000000000000000000000000110011000000000000000000000000001100101 "
b110110000000000000000000000000001101011000000000000000000000000011010100000000000000000000000000110100100000000000000000000000001101000000000000000000000000000011001110000000000000000000000000110011000000000000000000000000001100101 .
b110110000000000000000000000000011001111000000000000000000000001001100100000000000000000000000011001010100000000000000000000000111111000000000000000000000000010010110110000000000000000000000101011111000000000000000000000001100100001 )
b110110000000000000000000000000011001111000000000000000000000001001100100000000000000000000000011001010100000000000000000000000111111000000000000000000000000010010110110000000000000000000000101011111000000000000000000000001100100001 -
b0 T
b1000 S
1(
0%
#461000
b1000 V
b1101100 X
b1101100 W
b0 U
#465000
0$
b110110000000000000000000000000011001111000000000000000000000000110011100000000000000000000000001100110100000000000000000000000011001100000000000000000000000000110010110000000000000000000000001100101000000000000000000000000011001001 "
b110110000000000000000000000000011001111000000000000000000000000110011100000000000000000000000001100110100000000000000000000000011001100000000000000000000000000110010110000000000000000000000001100101000000000000000000000000011001001 .
b111 G
b111 F
b111 E
b1000 D
b1011 P
b1000 O
1%
#470000
b1101000000000000000000000000000011001111000000000000000000000000110011100000000000000000000000001100110100000000000000000000000011001100000000000000000000000000110010110000000000000000000000001100101000000000000000000000000011001001 "
b1101000000000000000000000000000011001111000000000000000000000000110011100000000000000000000000001100110100000000000000000000000011001100000000000000000000000000110010110000000000000000000000001100101000000000000000000000000011001001 .
b1101000000000000000000000000000100110011000000000000000000000001100101100000000000000000000000011111100100000000000000000000001001011100000000000000000000000010101111110000000000000000000000110010001000000000000000000000000000000000 )
b1101000000000000000000000000000100110011000000000000000000000001100101100000000000000000000000011111100100000000000000000000001001011100000000000000000000000010101111110000000000000000000000110010001000000000000000000000000000000000 -
b1 T
b1000 S
0(
0*
0%
#471000
b11010000 X
b11010000 W
b1000 V
b1 U
#475000
b1101000000000000000000000000000100110011000000000000000000000001001100100000000000000000000000010011000100000000000000000000000100110000000000000000000000000001001011110000000000000000000000010010111000000000000000000000000100101101 "
b1101000000000000000000000000000100110011000000000000000000000001001100100000000000000000000000010011000100000000000000000000000100110000000000000000000000000001001011110000000000000000000000010010111000000000000000000000000100101101 .
b111 G
b111 F
b111 E
b1000 D
b1100 P
b1001 O
1%
#480000
b10011010000000000000000000000000100110011000000000000000000000001001100100000000000000000000000010011000100000000000000000000000100110000000000000000000000000001001011110000000000000000000000010010111000000000000000000000000100101101 "
b10011010000000000000000000000000100110011000000000000000000000001001100100000000000000000000000010011000100000000000000000000000100110000000000000000000000000001001011110000000000000000000000010010111000000000000000000000000100101101 .
b10011010000000000000000000000000110010111000000000000000000000001111110100000000000000000000000100101110100000000000000000000001011000000000000000000000000000011001000110000000000000000000000000000000000000000000000000000000000000000 )
b10011010000000000000000000000000110010111000000000000000000000001111110100000000000000000000000100101110100000000000000000000001011000000000000000000000000000011001000110000000000000000000000000000000000000000000000000000000000000000 -
b10 T
b1000 S
0%
#481000
b100110100 X
b100110100 W
b1000 V
b10 U
#485000
b10011010000000000000000000000000110010111000000000000000000000001100101100000000000000000000000011001010100000000000000000000000110010100000000000000000000000001100100110000000000000000000000011001001000000000000000000000000110010001 "
b10011010000000000000000000000000110010111000000000000000000000001100101100000000000000000000000011001010100000000000000000000000110010100000000000000000000000001100100110000000000000000000000011001001000000000000000000000000110010001 .
b111 G
b111 F
b111 E
b1000 D
b1101 P
b1010 O
1%
#490000
b11001100000000000000000000000000110010111000000000000000000000001100101100000000000000000000000011001010100000000000000000000000110010100000000000000000000000001100100110000000000000000000000011001001000000000000000000000000110010001 "
b11001100000000000000000000000000110010111000000000000000000000001100101100000000000000000000000011001010100000000000000000000000110010100000000000000000000000001100100110000000000000000000000011001001000000000000000000000000110010001 .
b11001100000000000000000000000000111111011000000000000000000000010010111100000000000000000000000101100000100000000000000000000001100100100000000000000000000000000000000000000000000000000000000000000000000000000000000000000000000000000 )
b11001100000000000000000000000000111111011000000000000000000000010010111100000000000000000000000101100000100000000000000000000001100100100000000000000000000000000000000000000000000000000000000000000000000000000000000000000000000000000 -
b11 T
b1000 S
0%
#491000
b110011000 X
b110011000 W
b1000 V
b11 U
#495000
b11001100000000000000000000000000111111011000000000000000000000001111110100000000000000000000000011111100100000000000000000000000111111000000000000000000000000001111101110000000000000000000000011111011000000000000000000000000111110101 "
b11001100000000000000000000000000111111011000000000000000000000001111110100000000000000000000000011111100100000000000000000000000111111000000000000000000000000001111101110000000000000000000000011111011000000000000000000000000111110101 .
b111 G
b111 F
b111 E
b1000 D
b1110 P
b1011 O
1%
#500000
b11111110000000000000000000000000111111011000000000000000000000001111110100000000000000000000000011111100100000000000000000000000111111000000000000000000000000001111101110000000000000000000000011111011000000000000000000000000111110101 "
b11111110000000000000000000000000111111011000000000000000000000001111110100000000000000000000000011111100100000000000000000000000111111000000000000000000000000001111101110000000000000000000000011111011000000000000000000000000111110101 .
b11111110000000000000000000000001001011111000000000000000000000010110000100000000000000000000000110010010100000000000000000000000000000000000000000000000000000000000000000000000000000000000000000000000000000000000000000000000000000000 )
b11111110000000000000000000000001001011111000000000000000000000010110000100000000000000000000000110010010100000000000000000000000000000000000000000000000000000000000000000000000000000000000000000000000000000000000000000000000000000000 -
b100 T
b1000 S
0%
#501000
b111111100 X
b111111100 W
b1000 V
b100 U
#505000
b11111110000000000000000000000001001011111000000000000000000000010010111100000000000000000000000100101110100000000000000000000001001011100000000000000000000000010010110110000000000000000000000100101101000000000000000000000001001011001 "
b11111110000000000000000000000001001011111000000000000000000000010010111100000000000000000000000100101110100000000000000000000001001011100000000000000000000000010010110110000000000000000000000100101101000000000000000000000001001011001 .
b111 G
b111 F
b111 E
b1000 D
b1111 P
b1100 O
1%
#510000
b100110000000000000000000000000001001011111000000000000000000000010010111100000000000000000000000100101110100000000000000000000001001011100000000000000000000000010010110110000000000000000000000100101101000000000000000000000001001011001 "
b100110000000000000000000000000001001011111000000000000000000000010010111100000000000000000000000100101110100000000000000000000001001011100000000000000000000000010010110110000000000000000000000100101101000000000000000000000001001011001 .
b100110000000000000000000000000001011000011000000000000000000000011001001100000000000000000000000000000000000000000000000000000000000000000000000000000000000000000000000000000000000000000000000000000000000000000000000000000000000000000 )
b100110000000000000000000000000001011000011000000000000000000000011001001100000000000000000000000000000000000000000000000000000000000000000000000000000000000000000000000000000000000000000000000000000000000000000000000000000000000000000 -
b101 T
b1000 S
0%
#511000
b1001100000 X
b1001100000 W
b1000 V
b101 U
#515000
b100110000000000000000000000000001011000011000000000000000000000010110000100000000000000000000000101100000100000000000000000000001011000000000000000000000000000010101111110000000000000000000000101011111000000000000000000000001010111101 "
b100110000000000000000000000000001011000011000000000000000000000010110000100000000000000000000000101100000100000000000000000000001011000000000000000000000000000010101111110000000000000000000000101011111000000000000000000000001010111101 .
b111 G
b111 F
b111 E
b1000 D
b10000 P
b1101 O
1%
#520000
b101100010000000000000000000000001011000011000000000000000000000010110000100000000000000000000000101100000100000000000000000000001011000000000000000000000000000010101111110000000000000000000000101011111000000000000000000000001010111101 "
b101100010000000000000000000000001011000011000000000000000000000010110000100000000000000000000000101100000100000000000000000000001011000000000000000000000000000010101111110000000000000000000000101011111000000000000000000000001010111101 .
b101100010000000000000000000000001100100111000000000000000000000000000000000000000000000000000000000000000000000000000000000000000000000000000000000000000000000000000000000000000000000000000000000000000000000000000000000000000000000000 )
b101100010000000000000000000000001100100111000000000000000000000000000000000000000000000000000000000000000000000000000000000000000000000000000000000000000000000000000000000000000000000000000000000000000000000000000000000000000000000000 -
b110 T
b1000 S
0%
#521000
b1011000100 X
b1011000100 W
b1000 V
b110 U
#525000
1#
b101100010000000000000000000000001100100111000000000000000000000011001001100000000000000000000000110010010100000000000000000000001100100100000000000000000000000011001000110000000000000000000000110010001000000000000000000000001100100001 "
b101100010000000000000000000000001100100111000000000000000000000011001001100000000000000000000000110010010100000000000000000000001100100100000000000000000000000011001000110000000000000000000000110010001000000000000000000000001100100001 .
b111 G
b111 F
b111 E
b1000 D
b10001 P
b1110 O
1%
