sim/sddu.vcd
$date
	Tue Jul 14 16:10:11 2026
$end
$version
	Icarus Verilog
$end
$timescale
	1ps
$end
$scope module tb_SDDU $end
$var wire 1 ! out_valid $end
$var wire 256 " out_psum_bus [255:0] $end
$var wire 1 # out_k_tile_last $end
$var wire 1 $ out_k_tile_first $end
$var reg 1 % clk $end
$var reg 1 & enable $end
$var reg 1 ' in_k_tile_first $end
$var reg 1 ( in_k_tile_last $end
$var reg 256 ) in_psum_bus [255:0] $end
$var reg 1 * in_valid $end
$var reg 1 + rst_n $end
$var integer 32 , errors [31:0] $end
$scope module uut $end
$var wire 1 % clk $end
$var wire 1 & enable $end
$var wire 1 ' in_k_tile_first $end
$var wire 1 ( in_k_tile_last $end
$var wire 256 - in_psum_bus [255:0] $end
$var wire 1 * in_valid $end
$var wire 1 $ out_k_tile_first $end
$var wire 1 # out_k_tile_last $end
$var wire 1 + rst_n $end
$var wire 1 ! out_valid $end
$var wire 256 . out_psum_bus [255:0] $end
$var wire 8 / lane_valid [7:0] $end
$var parameter 32 0 MAX_DELAY $end
$scope begin genblk1[0] $end
$var parameter 32 1 DELAY $end
$var parameter 2 2 c $end
$scope begin genblk1 $end
$upscope $end
$upscope $end
$scope begin genblk1[1] $end
$var parameter 32 3 DELAY $end
$var parameter 2 4 c $end
$scope begin genblk1 $end
$upscope $end
$upscope $end
$scope begin genblk1[2] $end
$var parameter 32 5 DELAY $end
$var parameter 3 6 c $end
$scope begin genblk1 $end
$upscope $end
$upscope $end
$scope begin genblk1[3] $end
$var parameter 32 7 DELAY $end
$var parameter 3 8 c $end
$scope begin genblk1 $end
$upscope $end
$upscope $end
$scope begin genblk1[4] $end
$var parameter 32 9 DELAY $end
$var parameter 4 : c $end
$scope begin genblk1 $end
$upscope $end
$upscope $end
$scope begin genblk1[5] $end
$var parameter 32 ; DELAY $end
$var parameter 4 < c $end
$scope begin genblk1 $end
$upscope $end
$upscope $end
$scope begin genblk1[6] $end
$var parameter 32 = DELAY $end
$var parameter 4 > c $end
$scope begin genblk1 $end
$upscope $end
$upscope $end
$scope begin genblk1[7] $end
$var parameter 32 ? DELAY $end
$var parameter 4 @ c $end
$scope begin genblk1 $end
$upscope $end
$upscope $end
$scope begin $ivl_for_loop0 $end
$var integer 32 A i [31:0] $end
$scope begin $ivl_for_loop1 $end
$var integer 32 B j [31:0] $end
$upscope $end
$upscope $end
$scope begin $ivl_for_loop2 $end
$var integer 32 C i [31:0] $end
$scope begin $ivl_for_loop3 $end
$var integer 32 D j [31:0] $end
$upscope $end
$upscope $end
$scope begin $ivl_for_loop4 $end
$var integer 32 E i [31:0] $end
$upscope $end
$scope begin $ivl_for_loop5 $end
$var integer 32 F i [31:0] $end
$scope begin $ivl_for_loop6 $end
$var integer 32 G j [31:0] $end
$upscope $end
$upscope $end
$scope begin $ivl_for_loop7 $end
$var integer 32 H k [31:0] $end
$upscope $end
$upscope $end
$scope begin $ivl_for_loop11 $end
$var integer 32 I cycle [31:0] $end
$scope begin $ivl_for_loop12 $end
$var integer 32 J c [31:0] $end
$upscope $end
$scope begin $ivl_for_loop13 $end
$var integer 32 K c [31:0] $end
$scope begin $unm_blk_43 $end
$var reg 32 L val [31:0] $end
$upscope $end
$upscope $end
$upscope $end
$scope begin $ivl_for_loop8 $end
$var integer 32 M cycle [31:0] $end
$scope begin $ivl_for_loop10 $end
$var integer 32 N c [31:0] $end
$scope begin $unm_blk_24 $end
$var reg 32 O val [31:0] $end
$upscope $end
$upscope $end
$scope begin $ivl_for_loop9 $end
$var integer 32 P c [31:0] $end
$upscope $end
$upscope $end
$scope task reset_dut $end
$upscope $end
$upscope $end
$enddefinitions $end
$comment Show the parameter values. $end
$dumpall
b111 @
b0 ?
b110 >
b1 =
b101 <
b10 ;
b100 :
b11 9
b11 8
b100 7
b10 6
b101 5
b1 4
b110 3
b0 2
b111 1
b111 0
$end
#0
$dumpvars
b0 P
bx O
b0 N
b0 M
bx L
b0 K
b0 J
b0 I
b0 H
b0 G
b0 F
b111 E
b111 D
b1000 C
b111 B
b1000 A
bx0000000 /
bx00000000000000000000000000000000000000000000000000000000000000000000000000000000000000000000000000000000000000000000000000000000000000000000000000000000000000000000000000000000000000000000000000000000000000000000000000000000 .
bx -
b0 ,
0+
x*
bx )
x(
x'
0&
0%
0$
0#
bx00000000000000000000000000000000000000000000000000000000000000000000000000000000000000000000000000000000000000000000000000000000000000000000000000000000000000000000000000000000000000000000000000000000000000000000000000000000 "
0!
$end
#5000
b111 E
b111 D
b1000 C
b111 B
b1000 A
1%
#10000
0%
#15000
b111 E
b111 D
b1000 C
b111 B
b1000 A
1%
#20000
b0 "
b0 .
0(
0'
b0 )
b0 -
b0 /
0*
0%
#25000
b111 E
b111 D
b1000 C
b111 B
b1000 A
1%
#30000
0%
#35000
b111 E
b111 D
b1000 C
b111 B
b1000 A
1%
#40000
1+
0%
#45000
1%
#50000
b1000 P
b1100100 )
b1100100 -
1(
1'
b10000000 /
1*
1&
0%
#55000
b11000000 /
b111 H
b1000 F
b111 G
1%
#56000
0(
0'
b110010100000000000000000000000000000000 )
b110010100000000000000000000000000000000 -
b1000 P
b1 M
#60000
0%
#65000
b11100000 /
b111 H
b111 G
b1000 F
1%
#66000
b11001100000000000000000000000000000000000000000000000000000000000000000 )
b11001100000000000000000000000000000000000000000000000000000000000000000 -
b1000 P
b10 M
#70000
0%
#75000
b11110000 /
b111 H
b111 G
b1000 F
1%
#76000
b1100111000000000000000000000000000000000000000000000000000000000000000000000000000000000000000000000000 )
b1100111000000000000000000000000000000000000000000000000000000000000000000000000000000000000000000000000 -
b1000 P
b11 M
#80000
0%
#85000
b11111000 /
b111 H
b111 G
b1000 F
1%
#86000
b110100000000000000000000000000000000000000000000000000000000000000000000000000000000000000000000000000000000000000000000000000000000000 )
b110100000000000000000000000000000000000000000000000000000000000000000000000000000000000000000000000000000000000000000000000000000000000 -
b1000 P
b100 M
#90000
0%
#95000
b11111100 /
b111 H
b111 G
b1000 F
1%
#96000
b11010010000000000000000000000000000000000000000000000000000000000000000000000000000000000000000000000000000000000000000000000000000000000000000000000000000000000000000 )
b11010010000000000000000000000000000000000000000000000000000000000000000000000000000000000000000000000000000000000000000000000000000000000000000000000000000000000000000 -
b1000 P
b101 M
#100000
0%
#105000
b11111110 /
b111 H
b111 G
b1000 F
1%
#106000
b1101010000000000000000000000000000000000000000000000000000000000000000000000000000000000000000000000000000000000000000000000000000000000000000000000000000000000000000000000000000000000000000000000000 )
b1101010000000000000000000000000000000000000000000000000000000000000000000000000000000000000000000000000000000000000000000000000000000000000000000000000000000000000000000000000000000000000000000000000 -
b1000 P
b110 M
#110000
0%
#115000
1#
1$
b1101010000000000000000000000000011010010000000000000000000000000110100000000000000000000000000001100111000000000000000000000000011001100000000000000000000000000110010100000000000000000000000001100100 "
b1101010000000000000000000000000011010010000000000000000000000000110100000000000000000000000000001100111000000000000000000000000011001100000000000000000000000000110010100000000000000000000000001100100 .
1!
b11111111 /
b111 H
b111 G
b1000 F
1%
#116000
b110101100000000000000000000000001101010000000000000000000000000011010010000000000000000000000000110100000000000000000000000000001100111000000000000000000000000011001100000000000000000000000000110010100000000000000000000000001100100 "
b110101100000000000000000000000001101010000000000000000000000000011010010000000000000000000000000110100000000000000000000000000001100111000000000000000000000000011001100000000000000000000000000110010100000000000000000000000001100100 .
b110101100000000000000000000000000000000000000000000000000000000000000000000000000000000000000000000000000000000000000000000000000000000000000000000000000000000000000000000000000000000000000000000000000000000000000000000000000000000 )
b110101100000000000000000000000000000000000000000000000000000000000000000000000000000000000000000000000000000000000000000000000000000000000000000000000000000000000000000000000000000000000000000000000000000000000000000000000000000000 -
b1000 P
b111 M
#117000
b1000 N
b1101011 O
#120000
0%
#125000
0#
0$
b110101100000000000000000000000000000000000000000000000000000000000000000000000000000000000000000000000000000000000000000000000000000000000000000000000000000000000000000000000000000000000000000000000000000000000000000000000000000000 "
b110101100000000000000000000000000000000000000000000000000000000000000000000000000000000000000000000000000000000000000000000000000000000000000000000000000000000000000000000000000000000000000000000000000000000000000000000000000000000 .
b111 H
b111 G
b1000 F
1%
#126000
b1000 M
#130000
0!
b1111111 /
0*
0%
#135000
b111111 /
b111 H
b111 G
b1000 F
1%
#140000
b0 /
b0 "
b0 .
b111 E
b111 D
b1000 C
b111 B
b1000 A
b0 )
b0 -
0&
0+
0%
#145000
b111 E
b111 D
b1000 C
b111 B
b1000 A
1%
#150000
0%
#155000
b111 E
b111 D
b1000 C
b111 B
b1000 A
1%
#160000
1+
0%
#165000
1%
#170000
b11001000 )
b11001000 -
1(
1'
b10000000 /
1*
1&
0%
#175000
b11000000 /
b111 H
b111 G
b1000 F
1%
#176000
b1100100100000000000000000000000000000000 )
b1100100100000000000000000000000000000000 -
0(
0'
#180000
0%
#185000
b11100000 /
b111 H
b111 G
b1000 F
1%
#190000
b1100100100000000000000000000000000000000 )
b1100100100000000000000000000000000000000 -
0&
0%
#195000
1%
#200000
0%
#205000
1%
#210000
0%
#215000
1%
#220000
b110010100000000000000000000000000000000000000000000000000000000000000000 )
b110010100000000000000000000000000000000000000000000000000000000000000000 -
b1000 J
b10 I
1&
0%
#225000
b11110000 /
b111 H
b111 G
b1000 F
1%
#226000
b11001011000000000000000000000000000000000000000000000000000000000000000000000000000000000000000000000000 )
b11001011000000000000000000000000000000000000000000000000000000000000000000000000000000000000000000000000 -
b1000 J
b11 I
#230000
0%
#235000
b11111000 /
b111 H
b111 G
b1000 F
1%
#236000
b1100110000000000000000000000000000000000000000000000000000000000000000000000000000000000000000000000000000000000000000000000000000000000 )
b1100110000000000000000000000000000000000000000000000000000000000000000000000000000000000000000000000000000000000000000000000000000000000 -
b1000 J
b100 I
#240000
0%
#245000
b11111100 /
b111 H
b111 G
b1000 F
1%
#246000
b110011010000000000000000000000000000000000000000000000000000000000000000000000000000000000000000000000000000000000000000000000000000000000000000000000000000000000000000 )
b110011010000000000000000000000000000000000000000000000000000000000000000000000000000000000000000000000000000000000000000000000000000000000000000000000000000000000000000 -
b1000 J
b101 I
#250000
0%
#255000
b11111110 /
b111 H
b111 G
b1000 F
1%
#256000
b11001110000000000000000000000000000000000000000000000000000000000000000000000000000000000000000000000000000000000000000000000000000000000000000000000000000000000000000000000000000000000000000000000000 )
b11001110000000000000000000000000000000000000000000000000000000000000000000000000000000000000000000000000000000000000000000000000000000000000000000000000000000000000000000000000000000000000000000000000 -
b1000 J
b110 I
#260000
0%
#265000
1#
1$
b11001110000000000000000000000000110011010000000000000000000000001100110000000000000000000000000011001011000000000000000000000000110010100000000000000000000000001100100100000000000000000000000011001000 "
b11001110000000000000000000000000110011010000000000000000000000001100110000000000000000000000000011001011000000000000000000000000110010100000000000000000000000001100100100000000000000000000000011001000 .
1!
b11111111 /
b111 H
b111 G
b1000 F
1%
#266000
b1100111100000000000000000000000011001110000000000000000000000000110011010000000000000000000000001100110000000000000000000000000011001011000000000000000000000000110010100000000000000000000000001100100100000000000000000000000011001000 "
b1100111100000000000000000000000011001110000000000000000000000000110011010000000000000000000000001100110000000000000000000000000011001011000000000000000000000000110010100000000000000000000000001100100100000000000000000000000011001000 .
b1100111100000000000000000000000000000000000000000000000000000000000000000000000000000000000000000000000000000000000000000000000000000000000000000000000000000000000000000000000000000000000000000000000000000000000000000000000000000000 )
b1100111100000000000000000000000000000000000000000000000000000000000000000000000000000000000000000000000000000000000000000000000000000000000000000000000000000000000000000000000000000000000000000000000000000000000000000000000000000000 -
b1000 J
b111 I
#267000
b1000 K
b11001111 L
#270000
0%
#275000
0#
0$
b1100111100000000000000000000000000000000000000000000000000000000000000000000000000000000000000000000000000000000000000000000000000000000000000000000000000000000000000000000000000000000000000000000000000000000000000000000000000000000 "
b1100111100000000000000000000000000000000000000000000000000000000000000000000000000000000000000000000000000000000000000000000000000000000000000000000000000000000000000000000000000000000000000000000000000000000000000000000000000000000 .
b111 H
b111 G
b1000 F
1%
#276000
b1000 I
#280000
0%
#285000
b111 H
b111 G
b1000 F
1%
#290000
0%
#295000
b111 H
b111 G
b1000 F
1%
#300000
0%
#305000
b111 H
b111 G
b1000 F
1%
#310000
0%
#315000
b111 H
b111 G
b1000 F
1%
#320000
0%
#325000
b111 H
b111 G
b1000 F
1%
